%YAML 1.1
%TAG !u! tag:unity3d.com,2011:
--- !u!65 &6174208703339964824
BoxCollider:
  m_ObjectHideFlags: 0
  m_CorrespondingSourceObject: {fileID: 0}
  m_PrefabInstance: {fileID: 0}
  m_PrefabAsset: {fileID: 0}
  m_GameObject: {fileID: 833430793310865791}
  m_Material: {fileID: 0}
  m_IsTrigger: 0
  m_Enabled: 1
  serializedVersion: 2
  m_Size: {x: 1, y: 1.8581934, z: 0.6908798}
  m_Center: {x: 0, y: 0.8868661, z: -0.004863739}
--- !u!95 &6771619424513668055
Animator:
  serializedVersion: 3
  m_ObjectHideFlags: 0
  m_CorrespondingSourceObject: {fileID: 0}
  m_PrefabInstance: {fileID: 0}
  m_PrefabAsset: {fileID: 0}
  m_GameObject: {fileID: 833430793310865791}
  m_Enabled: 1
  m_Avatar: {fileID: 0}
  m_Controller: {fileID: 9100000, guid: 99b7f5f84ff52884f813c939d990f9c8, type: 2}
  m_CullingMode: 0
  m_UpdateMode: 0
  m_ApplyRootMotion: 0
  m_LinearVelocityBlending: 0
  m_WarningMessage: 
  m_HasTransformHierarchy: 1
  m_AllowConstantClipSamplingOptimization: 1
  m_KeepAnimatorControllerStateOnDisable: 0
--- !u!114 &4311665424178960715
MonoBehaviour:
  m_ObjectHideFlags: 0
  m_CorrespondingSourceObject: {fileID: 0}
  m_PrefabInstance: {fileID: 0}
  m_PrefabAsset: {fileID: 0}
  m_GameObject: {fileID: 833430793310865791}
  m_Enabled: 1
  m_EditorHideFlags: 0
  m_Script: {fileID: 11500000, guid: 81582c9bff4a474aa6eeb24ad11c09d3, type: 3}
  m_Name: 
  m_EditorClassIdentifier: 
  unitId: 52
  material: {fileID: 0}
  speed: 20
--- !u!1001 &527371088186291246
PrefabInstance:
  m_ObjectHideFlags: 0
  serializedVersion: 2
  m_Modification:
    m_TransformParent: {fileID: 0}
    m_Modifications:
    - target: {fileID: -8679921383154817045, guid: 1cd93a72a4bd25d4c8374950ff6c0a33, type: 3}
      propertyPath: m_RootOrder
      value: 0
      objectReference: {fileID: 0}
    - target: {fileID: -8679921383154817045, guid: 1cd93a72a4bd25d4c8374950ff6c0a33, type: 3}
      propertyPath: m_LocalScale.x
      value: 4
      objectReference: {fileID: 0}
    - target: {fileID: -8679921383154817045, guid: 1cd93a72a4bd25d4c8374950ff6c0a33, type: 3}
      propertyPath: m_LocalScale.y
      value: 4
      objectReference: {fileID: 0}
    - target: {fileID: -8679921383154817045, guid: 1cd93a72a4bd25d4c8374950ff6c0a33, type: 3}
      propertyPath: m_LocalScale.z
      value: 4
      objectReference: {fileID: 0}
    - target: {fileID: -8679921383154817045, guid: 1cd93a72a4bd25d4c8374950ff6c0a33, type: 3}
      propertyPath: m_LocalPosition.x
      value: 0
      objectReference: {fileID: 0}
    - target: {fileID: -8679921383154817045, guid: 1cd93a72a4bd25d4c8374950ff6c0a33, type: 3}
      propertyPath: m_LocalPosition.y
      value: 0
      objectReference: {fileID: 0}
    - target: {fileID: -8679921383154817045, guid: 1cd93a72a4bd25d4c8374950ff6c0a33, type: 3}
      propertyPath: m_LocalPosition.z
      value: 0
      objectReference: {fileID: 0}
    - target: {fileID: -8679921383154817045, guid: 1cd93a72a4bd25d4c8374950ff6c0a33, type: 3}
      propertyPath: m_LocalRotation.w
      value: 1
      objectReference: {fileID: 0}
    - target: {fileID: -8679921383154817045, guid: 1cd93a72a4bd25d4c8374950ff6c0a33, type: 3}
      propertyPath: m_LocalRotation.x
      value: 0
      objectReference: {fileID: 0}
    - target: {fileID: -8679921383154817045, guid: 1cd93a72a4bd25d4c8374950ff6c0a33, type: 3}
      propertyPath: m_LocalRotation.y
      value: 0
      objectReference: {fileID: 0}
    - target: {fileID: -8679921383154817045, guid: 1cd93a72a4bd25d4c8374950ff6c0a33, type: 3}
      propertyPath: m_LocalRotation.z
      value: 0
      objectReference: {fileID: 0}
    - target: {fileID: -8679921383154817045, guid: 1cd93a72a4bd25d4c8374950ff6c0a33, type: 3}
      propertyPath: m_LocalEulerAnglesHint.x
      value: 0
      objectReference: {fileID: 0}
    - target: {fileID: -8679921383154817045, guid: 1cd93a72a4bd25d4c8374950ff6c0a33, type: 3}
      propertyPath: m_LocalEulerAnglesHint.y
      value: 0
      objectReference: {fileID: 0}
    - target: {fileID: -8679921383154817045, guid: 1cd93a72a4bd25d4c8374950ff6c0a33, type: 3}
      propertyPath: m_LocalEulerAnglesHint.z
      value: 0
      objectReference: {fileID: 0}
    - target: {fileID: 919132149155446097, guid: 1cd93a72a4bd25d4c8374950ff6c0a33, type: 3}
      propertyPath: m_Name
      value: Characters
      objectReference: {fileID: 0}
    m_RemovedComponents: []
  m_SourcePrefab: {fileID: 100100000, guid: 1cd93a72a4bd25d4c8374950ff6c0a33, type: 3}
--- !u!1 &833430793310865791 stripped
GameObject:
  m_CorrespondingSourceObject: {fileID: 919132149155446097, guid: 1cd93a72a4bd25d4c8374950ff6c0a33, type: 3}
  m_PrefabInstance: {fileID: 527371088186291246}
  m_PrefabAsset: {fileID: 0}
